https: //jsonmock.hackerrank.com/api/asteroids/search?discoverydate=2010&orbitclass=aten
https: //jsonmock.hackerrank.com/api/asteroids/
{
    "page": 1,
    "per_page": 10,
    "total": 202,
    "total_pages": 21,
    "data": [
        {
            "designation": "419880 (2011 AH37)",
            "discovery_date": "2011-01-07",
            "h_mag": "19.7",
            "moid_au": "0.035",
            "q_au_1": "0.84",
            "q_au_2": "4.26",
            "period_yr": "4.06",
            "i_deg": "9.65",
            "pha": "Y",
            "orbit_class": "Apollo",
            "discovery_timestamp": 1294358400
        },
        {
            "designation": "419624 (2010 SO16)",
            "discovery_date": "2010-09-17",
            "h_mag": "20.5",
            "moid_au": "0.028",
            "q_au_1": "0.93",
            "q_au_2": "1.08",
            "period_yr": "1",
            "i_deg": "14.52",
            "pha": "Y",
            "orbit_class": "Apollo",
            "discovery_timestamp": 1284681600
        },
        {
            "designation": "414772 (2010 OC103)",
            "discovery_date": "2010-07-28",
            "h_mag": "19",
            "moid_au": "0.333",
            "q_au_1": "0.39",
            "q_au_2": "2",
            "period_yr": "1.31",
            "i_deg": "23.11",
            "pha": "N",
            "orbit_class": "Apollo",
            "discovery_timestamp": 1280275200
        },
        {
            "designation": "414746 (2010 EH20)",
            "discovery_date": "2010-03-06",
            "h_mag": "18",
            "moid_au": "0.268",
            "q_au_1": "1.25",
            "q_au_2": "3.99",
            "period_yr": "4.24",
            "i_deg": "23.89",
            "pha": "N",
            "orbit_class": "Amor",
            "discovery_timestamp": 1267833600
        },
        {
            "designation": "407324 (2010 OB101)",
            "discovery_date": "2010-07-18",
            "h_mag": "20.7",
            "moid_au": "0.111",
            "q_au_1": "0.77",
            "q_au_2": "2.46",
            "period_yr": "2.06",
            "i_deg": "9.12",
            "pha": "N",
            "orbit_class": "Apollo",
            "discovery_timestamp": 1279411200
        },
        {
            "designation": "398188 (2010 LE15)",
            "discovery_date": "2010-06-03",
            "h_mag": "19.5",
            "moid_au": "0.024",
            "q_au_1": "0.63",
            "q_au_2": "1.1",
            "period_yr": "0.8",
            "i_deg": "13.25",
            "pha": "Y",
            "orbit_class": "Aten",
            "discovery_timestamp": 1275523200
        },
        {
            "designation": "395207 (2010 HQ80)",
            "discovery_date": "2010-04-25",
            "h_mag": "19.6",
            "moid_au": "0.007",
            "q_au_1": "0.8",
            "q_au_2": "2.34",
            "period_yr": "1.96",
            "i_deg": "27.85",
            "pha": "Y",
            "orbit_class": "Apollo",
            "discovery_timestamp": 1272153600
        },
        {
            "designation": "386847 (2010 LR33)",
            "discovery_date": "2010-06-06",
            "h_mag": "18",
            "moid_au": "0.029",
            "q_au_1": "0.91",
            "q_au_2": "2.48",
            "period_yr": "2.2",
            "i_deg": "5.84",
            "pha": "Y",
            "orbit_class": "Apollo",
            "discovery_timestamp": 1275782400
        },
        {
            "designation": "381989 (2010 HR80)",
            "discovery_date": "2010-04-28",
            "h_mag": "19.9",
            "moid_au": "0.104",
            "q_au_1": "0.68",
            "q_au_2": "2.02",
            "period_yr": "1.56",
            "i_deg": "26.71",
            "pha": "N",
            "orbit_class": "Apollo",
            "discovery_timestamp": 1272412800
        },
        {
            "designation": "369454 (2010 NZ1)",
            "discovery_date": "2010-07-09",
            "h_mag": "19.4",
            "moid_au": "0.275",
            "q_au_1": "0.49",
            "q_au_2": "2.26",
            "period_yr": "1.61",
            "i_deg": "32.78",
            "pha": "N",
            "orbit_class": "Apollo",
            "discovery_timestamp": 1278633600
        }
    ]
}

https: //jsonmock.hackerrank.com/api/asteroids/search?orbit_class=Aten
{
    "page": 1,
    "per_page": 10,
    "total": 15,
    "total_pages": 2,
    "data": [
        {
            "designation": "398188 (2010 LE15)",
            "discovery_date": "2010-06-03",
            "h_mag": "19.5",
            "moid_au": "0.024",
            "q_au_1": "0.63",
            "q_au_2": "1.1",
            "period_yr": "0.8",
            "i_deg": "13.25",
            "pha": "Y",
            "orbit_class": "Aten",
            "discovery_timestamp": 1275523200
        },
        {
            "designation": "365449 (2010 NJ1)",
            "discovery_date": "2010-07-03",
            "h_mag": "20.3",
            "moid_au": "0.155",
            "q_au_1": "0.44",
            "q_au_2": "1.49",
            "period_yr": "0.95",
            "i_deg": "11.23",
            "pha": "N",
            "orbit_class": "Aten",
            "discovery_timestamp": 1278115200
        },
        {
            "designation": "365424 (2010 KX7)",
            "discovery_date": "2010-05-16",
            "h_mag": "21.9",
            "moid_au": "0.034",
            "q_au_1": "0.82",
            "q_au_2": "1.16",
            "period_yr": "0.98",
            "i_deg": "21.49",
            "pha": "Y",
            "orbit_class": "Aten",
            "discovery_timestamp": 1273968000
        },
        {
            "designation": "(2015 FD341)",
            "discovery_date": "2015-03-27",
            "h_mag": "18",
            "moid_au": "0.124",
            "q_au_1": "0.31",
            "q_au_2": "1.6",
            "period_yr": "0.93",
            "i_deg": "20.55",
            "pha": "N",
            "orbit_class": "Aten",
            "discovery_timestamp": 1427414400
        },
        {
            "designation": "(2014 HQ124)",
            "discovery_date": "2014-04-23",
            "h_mag": "18.9",
            "moid_au": "0.007",
            "q_au_1": "0.63",
            "q_au_2": "1.07",
            "period_yr": "0.78",
            "i_deg": "26.37",
            "pha": "Y",
            "orbit_class": "Aten",
            "discovery_timestamp": 1398211200
        },
        {
            "designation": "(2010 TK7)",
            "discovery_date": "2010-10-01",
            "h_mag": "20.8",
            "moid_au": "0.087",
            "q_au_1": "0.81",
            "q_au_2": "1.19",
            "period_yr": "1",
            "i_deg": "20.89",
            "pha": "N",
            "orbit_class": "Aten",
            "discovery_timestamp": 1285891200
        },
        {
            "designation": "(2010 PW58)",
            "discovery_date": "2010-08-05",
            "h_mag": "21.3",
            "moid_au": "0.021",
            "q_au_1": "0.7",
            "q_au_2": "1.08",
            "period_yr": "0.84",
            "i_deg": "14.24",
            "pha": "Y",
            "orbit_class": "Aten",
            "discovery_timestamp": 1280966400
        },
        {
            "designation": "(2010 OF101)",
            "discovery_date": "2010-07-23",
            "h_mag": "19.6",
            "moid_au": "0.062",
            "q_au_1": "0.64",
            "q_au_2": "1.26",
            "period_yr": "0.93",
            "i_deg": "23.37",
            "pha": "N",
            "orbit_class": "Aten",
            "discovery_timestamp": 1279843200
        },
        {
            "designation": "(2010 NY65)",
            "discovery_date": "2010-07-14",
            "h_mag": "21.4",
            "moid_au": "0.017",
            "q_au_1": "0.63",
            "q_au_2": "1.37",
            "period_yr": "1",
            "i_deg": "11.74",
            "pha": "Y",
            "orbit_class": "Aten",
            "discovery_timestamp": 1279065600
        },
        {
            "designation": "(2010 NG1)",
            "discovery_date": "2010-07-02",
            "h_mag": "20.4",
            "moid_au": "0.081",
            "q_au_1": "0.57",
            "q_au_2": "1.13",
            "period_yr": "0.78",
            "i_deg": "24.74",
            "pha": "N",
            "orbit_class": "Aten",
            "discovery_timestamp": 1278028800
        }
    ]
}